sigmoid_verilog/sig_hw_tb.vcd
$date
	Fri Dec 01 15:28:40 2023
$end
$version
	Icarus Verilog
$end
$timescale
	1ns
$end
$scope module sig_4_hw_tb $end
$var wire 32 ! y [31:0] $end
$var wire 1 " valid $end
$var parameter 32 # DWIDTH $end
$var reg 1 $ clk $end
$var reg 1 % rst $end
$var reg 1 & start $end
$var reg 32 ' x [31:0] $end
$scope module dut $end
$var wire 10 ( c10_in2 [9:0] $end
$var wire 10 ) c11_in2 [9:0] $end
$var wire 10 * c12_in2 [9:0] $end
$var wire 10 + c1_in2 [9:0] $end
$var wire 10 , c2_in2 [9:0] $end
$var wire 10 - c3_in2 [9:0] $end
$var wire 10 . c4_in2 [9:0] $end
$var wire 10 / c5_in2 [9:0] $end
$var wire 10 0 c6_in2 [9:0] $end
$var wire 10 1 c7_in2 [9:0] $end
$var wire 10 2 c8_in2 [9:0] $end
$var wire 10 3 c9_in2 [9:0] $end
$var wire 1 $ clk $end
$var wire 32 4 rm_neg_05 [31:0] $end
$var wire 32 5 rm_neg_1 [31:0] $end
$var wire 32 6 rm_pos_05 [31:0] $end
$var wire 32 7 rm_pos_1 [31:0] $end
$var wire 1 % rst $end
$var wire 1 & start $end
$var wire 32 8 x_in [31:0] $end
$var wire 32 9 y_out [31:0] $end
$var wire 1 : x_gre_3_1st $end
$var wire 1 ; valid_sub_2nd $end
$var wire 1 < valid_sub_1st $end
$var wire 32 = sp_data [31:0] $end
$var wire 1 > sp_case $end
$var wire 2 ? sp_addr [1:0] $end
$var wire 32 @ rm_neg_data [31:0] $end
$var wire 32 A rm_neg_calculate_data [31:0] $end
$var wire 32 B rm_data [31:0] $end
$var wire 4 C pe_addr [3:0] $end
$var wire 8 D exp_wo_bias_1st [7:0] $end
$var wire 8 E exp_wo_bias [7:0] $end
$var wire 13 F cmp_ip_1st [12:0] $end
$var wire 10 G cmp_ip [9:0] $end
$var wire 12 H c_out [11:0] $end
$var parameter 2 I ADD_WAIT $end
$var parameter 8 J BIAS $end
$var parameter 32 K DWIDTH $end
$var parameter 32 L EXPONENT_WIDTH $end
$var parameter 2 M IDLE_WAIT $end
$var parameter 32 N K $end
$var parameter 2 O START $end
$var reg 1 P ip_adder_ready $end
$var reg 2 Q next_state [1:0] $end
$var reg 2 R present_state [1:0] $end
$var reg 1 S start_ip $end
$var reg 1 " valid $end
$var reg 32 T x [31:0] $end
$var reg 1 U x_gre_3 $end
$var reg 1 V x_gre_3_2nd $end
$var reg 1 W x_neg_pos $end
$var reg 1 X x_neg_pos_1st $end
$var reg 1 Y x_neg_pos_2nd $end
$var reg 1 Z x_sp_case $end
$var reg 1 [ x_sp_case_2nd $end
$scope module c1 $end
$var wire 1 $ c_clk $end
$var wire 10 \ c_in1 [9:0] $end
$var wire 10 ] c_in2 [9:0] $end
$var wire 1 % c_rst $end
$var parameter 32 ^ CWIDTH $end
$var reg 1 _ c_out $end
$upscope $end
$scope module c10 $end
$var wire 1 $ c_clk $end
$var wire 10 ` c_in1 [9:0] $end
$var wire 10 a c_in2 [9:0] $end
$var wire 1 % c_rst $end
$var parameter 32 b CWIDTH $end
$var reg 1 c c_out $end
$upscope $end
$scope module c11 $end
$var wire 1 $ c_clk $end
$var wire 10 d c_in1 [9:0] $end
$var wire 10 e c_in2 [9:0] $end
$var wire 1 % c_rst $end
$var parameter 32 f CWIDTH $end
$var reg 1 g c_out $end
$upscope $end
$scope module c12 $end
$var wire 1 $ c_clk $end
$var wire 10 h c_in1 [9:0] $end
$var wire 10 i c_in2 [9:0] $end
$var wire 1 % c_rst $end
$var parameter 32 j CWIDTH $end
$var reg 1 k c_out $end
$upscope $end
$scope module c2 $end
$var wire 1 $ c_clk $end
$var wire 10 l c_in1 [9:0] $end
$var wire 10 m c_in2 [9:0] $end
$var wire 1 % c_rst $end
$var parameter 32 n CWIDTH $end
$var reg 1 o c_out $end
$upscope $end
$scope module c3 $end
$var wire 1 $ c_clk $end
$var wire 10 p c_in1 [9:0] $end
$var wire 10 q c_in2 [9:0] $end
$var wire 1 % c_rst $end
$var parameter 32 r CWIDTH $end
$var reg 1 s c_out $end
$upscope $end
$scope module c4 $end
$var wire 1 $ c_clk $end
$var wire 10 t c_in1 [9:0] $end
$var wire 10 u c_in2 [9:0] $end
$var wire 1 % c_rst $end
$var parameter 32 v CWIDTH $end
$var reg 1 w c_out $end
$upscope $end
$scope module c5 $end
$var wire 1 $ c_clk $end
$var wire 10 x c_in1 [9:0] $end
$var wire 10 y c_in2 [9:0] $end
$var wire 1 % c_rst $end
$var parameter 32 z CWIDTH $end
$var reg 1 { c_out $end
$upscope $end
$scope module c6 $end
$var wire 1 $ c_clk $end
$var wire 10 | c_in1 [9:0] $end
$var wire 10 } c_in2 [9:0] $end
$var wire 1 % c_rst $end
$var parameter 32 ~ CWIDTH $end
$var reg 1 !" c_out $end
$upscope $end
$scope module c7 $end
$var wire 1 $ c_clk $end
$var wire 10 "" c_in1 [9:0] $end
$var wire 10 #" c_in2 [9:0] $end
$var wire 1 % c_rst $end
$var parameter 32 $" CWIDTH $end
$var reg 1 %" c_out $end
$upscope $end
$scope module c8 $end
$var wire 1 $ c_clk $end
$var wire 10 &" c_in1 [9:0] $end
$var wire 10 '" c_in2 [9:0] $end
$var wire 1 % c_rst $end
$var parameter 32 (" CWIDTH $end
$var reg 1 )" c_out $end
$upscope $end
$scope module c9 $end
$var wire 1 $ c_clk $end
$var wire 10 *" c_in1 [9:0] $end
$var wire 10 +" c_in2 [9:0] $end
$var wire 1 % c_rst $end
$var parameter 32 ," CWIDTH $end
$var reg 1 -" c_out $end
$upscope $end
$scope module mrsp $end
$var wire 1 $ sp_clk $end
$var wire 1 > sp_case $end
$var wire 2 ." sp_addr [1:0] $end
$var parameter 32 /" DWIDTH $end
$var parameter 32 0" K_CLUSTER $end
$var reg 32 1" sp_data [31:0] $end
$upscope $end
$scope module pe $end
$var wire 12 2" pe_in [11:0] $end
$var parameter 32 3" K_CLUSTER $end
$var reg 4 4" pe_out [3:0] $end
$upscope $end
$scope module rm $end
$var wire 4 5" rm_addr [3:0] $end
$var wire 1 $ rm_clk $end
$var wire 1 % rm_rst $end
$var parameter 32 6" DWIDTH $end
$var parameter 32 7" K_CLUSTER $end
$var reg 32 8" rm_data [31:0] $end
$upscope $end
$scope module sp $end
$var wire 8 9" exp_wo_bias [7:0] $end
$var wire 8 :" exp_wo_bias_1st [7:0] $end
$var wire 1 $ sp_case_clk $end
$var wire 32 ;" sp_case_in [31:0] $end
$var parameter 32 <" DWIDTH $end
$var parameter 32 =" EXPONENT_WIDTH $end
$var parameter 32 >" K_CLUSTER $end
$var reg 1 > sp_case $end
$var reg 2 ?" sp_case_addr [1:0] $end
$var reg 1 : x_gre_3 $end
$upscope $end
$scope module subtractor_neg_1st $end
$var wire 32 @" a [31:0] $end
$var wire 32 A" b [31:0] $end
$var wire 1 $ clk $end
$var wire 1 B" ip_ready $end
$var wire 1 % rst $end
$var wire 1 C" sub_borrow $end
$var wire 1 D" sum_carry $end
$var wire 32 E" sum [31:0] $end
$var parameter 2 F" ADD $end
$var parameter 8 G" BIAS $end
$var parameter 32 H" DWIDTH $end
$var parameter 32 I" EXPONENT_WIDTH $end
$var parameter 2 J" IDLE $end
$var parameter 2 K" NORMALIZE $end
$var reg 2 L" NS [1:0] $end
$var reg 2 M" PS [1:0] $end
$var reg 8 N" a_exp [7:0] $end
$var reg 24 O" a_mantissa [23:0] $end
$var reg 24 P" a_mantissa_shift [23:0] $end
$var reg 1 Q" a_sign $end
$var reg 8 R" abs_diff [7:0] $end
$var reg 8 S" b_exp [7:0] $end
$var reg 24 T" b_mantissa [23:0] $end
$var reg 24 U" b_mantissa_shift [23:0] $end
$var reg 1 V" b_sign $end
$var reg 8 W" final_exp [7:0] $end
$var reg 25 X" final_mantissa [24:0] $end
$var reg 1 Y" final_sign $end
$var reg 8 Z" next_exp [7:0] $end
$var reg 25 [" next_mantissa [24:0] $end
$var reg 1 \" next_sign $end
$var reg 9 ]" sub_exp [8:0] $end
$var reg 25 ^" sum_mantissa_add_sub [24:0] $end
$var reg 1 < valid $end
$var reg 1 _" valid_sig $end
$upscope $end
$scope module subtractor_neg_2nd $end
$var wire 32 `" a [31:0] $end
$var wire 32 a" b [31:0] $end
$var wire 1 $ clk $end
$var wire 1 < ip_ready $end
$var wire 1 % rst $end
$var wire 1 b" sub_borrow $end
$var wire 1 c" sum_carry $end
$var wire 32 d" sum [31:0] $end
$var parameter 2 e" ADD $end
$var parameter 8 f" BIAS $end
$var parameter 32 g" DWIDTH $end
$var parameter 32 h" EXPONENT_WIDTH $end
$var parameter 2 i" IDLE $end
$var parameter 2 j" NORMALIZE $end
$var reg 2 k" NS [1:0] $end
$var reg 2 l" PS [1:0] $end
$var reg 8 m" a_exp [7:0] $end
$var reg 24 n" a_mantissa [23:0] $end
$var reg 24 o" a_mantissa_shift [23:0] $end
$var reg 1 p" a_sign $end
$var reg 8 q" abs_diff [7:0] $end
$var reg 8 r" b_exp [7:0] $end
$var reg 24 s" b_mantissa [23:0] $end
$var reg 24 t" b_mantissa_shift [23:0] $end
$var reg 1 u" b_sign $end
$var reg 8 v" final_exp [7:0] $end
$var reg 25 w" final_mantissa [24:0] $end
$var reg 1 x" final_sign $end
$var reg 8 y" next_exp [7:0] $end
$var reg 25 z" next_mantissa [24:0] $end
$var reg 1 {" next_sign $end
$var reg 9 |" sub_exp [8:0] $end
$var reg 25 }" sum_mantissa_add_sub [24:0] $end
$var reg 1 ; valid $end
$var reg 1 ~" valid_sig $end
$upscope $end
$upscope $end
$upscope $end
$enddefinitions $end
$comment Show the parameter values. $end
$dumpall
b10 j"
b0 i"
b1000 h"
b100000 g"
b1111111 f"
b1 e"
b10 K"
b0 J"
b1000 I"
b100000 H"
b1111111 G"
b1 F"
b1100 >"
b1000 ="
b100000 <"
b1100 7"
b100000 6"
b1100 3"
b1100 0"
b100000 /"
b1010 ,"
b1010 ("
b1010 $"
b1010 ~
b1010 z
b1010 v
b1010 r
b1010 n
b1010 j
b1010 f
b1010 b
b1010 ^
b1 O
b1100 N
b0 M
b1000 L
b100000 K
b1111111 J
b10 I
b100000 #
$end
#0
$dumpvars
x~"
b0 }"
b0 |"
0{"
b0 z"
b0 y"
xx"
bx w"
bx v"
xu"
b0 t"
bx s"
bx r"
b0 q"
xp"
b0 o"
bx n"
bx m"
bx l"
b0 k"
bx d"
0c"
0b"
b1xxxxxxxxxxxxxxxxxxxxxxxxxxxxxxx a"
b111111000000000000000000000000 `"
x_"
b0 ^"
b0 ]"
0\"
b0 ["
b0 Z"
xY"
bx X"
bx W"
xV"
b0 U"
bx T"
bx S"
b0 R"
xQ"
b0 P"
bx O"
bx N"
bx M"
b0 L"
bx E"
0D"
0C"
xB"
b10111111000000000000000000000000 A"
bx @"
bx ?"
bx ;"
bx :"
bx 9"
bx 8"
bx 5"
bx 4"
bx 2"
bx 1"
bx ."
x-"
b110101101 +"
bx *"
x)"
b101111001 '"
bx &"
x%"
b101000111 #"
bx ""
x!"
b100010110 }
bx |
x{
b11100110 y
bx x
xw
b10110111 u
bx t
xs
b10001001 q
bx p
xo
b1011011 m
bx l
xk
b1010000000 i
bx h
xg
b1000100111 e
bx d
xc
b111100101 a
bx `
x_
b101101 ]
bx \
x[
xZ
xY
xX
xW
xV
xU
bx T
xS
bx R
bx Q
xP
bx H
bx G
bx F
bx E
bx D
bx C
bx B
bx A
bx @
bx ?
x>
bx =
x<
x;
x:
bx 9
bx 8
b111111100000000000000000000000 7
b111111000000000000000000000000 6
b0 5
b10111111000000000000000000000000 4
b110101101 3
b101111001 2
b101000111 1
b100010110 0
b11100110 /
b10110111 .
b10001001 -
b1011011 ,
b101101 +
b1010000000 *
b1000100111 )
b111100101 (
bx '
x&
x%
0$
x"
bx !
$end
#2
0B"
0P
0&
1%
#5
b0 r"
b10000000000000000000000000000000 a"
0~"
b100000000000000000000000 s"
b100000000000000000000000 n"
b1111110 m"
1u"
0p"
0_"
b100000000000000000000000 T"
b100000000000000000000000 O"
b1111110 S"
b0 N"
1V"
0Q"
b0 Q
0"
b0 M"
0<
b0 X"
0Y"
b0 A
b0 E"
b0 W"
b0 l"
0;
b0 w"
0x"
b0 @
b0 d"
b0 v"
0>
0:
0_
0o
0s
0w
0{
0!"
0%"
0)"
0-"
0c
0g
b0 H
b0 2"
0k
b0 B
b0 8"
b0 @"
b0 R
1$
#7
b0x L"
xB"
xP
b111111100111010111000010100100 '
b111111100111010111000010100100 8
1&
0%
#10
0$
#15
b10011101 G
b10011101 \
b10011101 `
b10011101 d
b10011101 h
b10011101 l
b10011101 p
b10011101 t
b10011101 x
b10011101 |
b10011101 ""
b10011101 &"
b10011101 *"
b10011101011 F
b0 E
b0 9"
b0 D
b0 :"
b0 L"
0V
0[
b111111100111010111000010100100 T
b111111100111010111000010100100 ;"
b0 =
b0 1"
b0x M"
b1 Q
1S
1$
#17
0&
#20
0$
#25
bx G
bx \
bx `
bx d
bx h
bx l
bx p
bx t
bx x
bx |
bx ""
bx &"
bx *"
bx F
bx E
bx 9"
b0x L"
b11 C
b11 4"
b11 5"
bx D
bx :"
b0 M"
1w
1{
1!"
1%"
1)"
1-"
1c
1g
b111111111000 H
b111111111000 2"
1k
bx T
bx ;"
0X
0U
0Z
b1 R
b0 Q
0S
1$
#26
b111111000110011001100110011010 '
b111111000110011001100110011010 8
1&
#30
0$
#35
b1001100 G
b1001100 \
b1001100 `
b1001100 d
b1001100 h
b1001100 l
b1001100 p
b1001100 t
b1001100 x
b1001100 |
b1001100 ""
b1001100 &"
b1001100 *"
b1001100110 F
0B"
b1 E
b1 9"
0P
b11111111 D
b11111111 :"
bx C
bx 4"
bx 5"
b0 L"
b0 R
0Y
xX
b111111000110011001100110011010 T
b111111000110011001100110011010 ;"
b111111010001101111011100100111 B
b111111010001101111011100100111 8"
b111111010001101111011100100111 @"
0k
0g
0c
0-"
0)"
0%"
0!"
0{
b0 H
b0 2"
0w
b0x M"
b1 Q
1S
1$
#36
b1000000000001111010111000010100 '
b1000000000001111010111000010100 8
#40
0$
#45
b100001111 G
b100001111 \
b100001111 `
b100001111 d
b100001111 h
b100001111 l
b100001111 p
b100001111 t
b100001111 x
b100001111 |
b100001111 ""
b100001111 &"
b100001111 *"
b100001111010 F
b111111010001101111011100100111 !
b111111010001101111011100100111 9
b110001101111011100100111 O"
b1111110 N"
b1 C
b1 4"
b1 5"
b1 D
b1 :"
xP
1"
b0 M"
1o
1s
1w
1{
1!"
1%"
1)"
1-"
1c
1g
b111111111110 H
b111111111110 2"
1k
b1000000000001111010111000010100 T
b1000000000001111010111000010100 ;"
0X
xY
0W
b1 R
1$
#46
b1000000101100001111010111000011 '
b1000000101100001111010111000011 8
#50
0$
#55
b1011000011 G
b1011000011 \
b1011000011 `
b1011000011 d
b1011000011 h
b1011000011 l
b1011000011 p
b1011000011 t
b1011000011 x
b1011000011 |
b1011000011 ""
b1011000011 &"
b1011000011 *"
b1011000011100 F
bx !
bx 9
b10 E
b10 9"
0"
0P
b10 D
b10 :"
b101000010011111110011010 O"
b101 C
b101 4"
b101 5"
xW
0Y
b1000000101100001111010111000011 T
b1000000101100001111010111000011 ;"
b111111001000010011111110011010 B
b111111001000010011111110011010 8"
b111111001000010011111110011010 @"
0{
0w
0s
b111111100000 H
b111111100000 2"
0o
1$
#56
b0 '
b0 8
#60
0$
#65
b0 G
b0 \
b0 `
b0 d
b0 h
b0 l
b0 p
b0 t
b0 x
b0 |
b0 ""
b0 &"
b0 *"
b0 F
b1111111 E
b1111111 9"
b111111011000010001011101110101 !
b111111011000010001011101110101 9
bx C
bx 4"
bx 5"
b111000010001011101110101 O"
b10000001 D
b10000001 :"
1"
1:
0!"
0%"
0)"
0-"
0c
0g
b0 H
b0 2"
0k
b111111011000010001011101110101 B
b111111011000010001011101110101 8"
b111111011000010001011101110101 @"
b0 T
b0 ;"
0W
1$
#66
b1111111100000000000000000000000 '
b1111111100000000000000000000000 8
#70
0$
#75
b10000000 E
b10000000 9"
b10000000 D
b10000000 :"
b0 C
b0 4"
b0 5"
1V
b1111111100000000000000000000000 T
b1111111100000000000000000000000 ;"
1k
1g
1c
1-"
1)"
1%"
1!"
1{
1w
1s
1o
b111111111111 H
b111111111111 2"
1_
b0 ?
b0 ."
b0 ?"
1>
0:
1$
#76
b11111111100000000000000000000000 '
b11111111100000000000000000000000 8
#80
0$
#85
b111111100000000000000000000000 !
b111111100000000000000000000000 9
b100010110100101111001111 O"
b1 ?
b1 ."
b1 ?"
b111111000010110100101111001111 B
b111111000010110100101111001111 8"
b111111000010110100101111001111 @"
b111111000000000000000000000000 =
b111111000000000000000000000000 1"
b11111111100000000000000000000000 T
b11111111100000000000000000000000 ;"
0V
1[
1U
1$
#86
b10010000000000000000000 '
b10010000000000000000000 8
#90
0$
#95
b1111111 E
b1111111 9"
b10000001 D
b10000001 :"
0U
1Z
1X
b10010000000000000000000 T
b10010000000000000000000 ;"
b111111100000000000000000000000 =
b111111100000000000000000000000 1"
b10 ?
b10 ."
b10 ?"
1$
#96
b1111111110010000000000000000000 '
b1111111110010000000000000000000 8
#100
0$
#105
b10000000 E
b10000000 9"
b0 !
b0 9
b10000000 D
b10000000 :"
b0 ?
b0 ."
b0 ?"
b0 =
b0 1"
b1111111110010000000000000000000 T
b1111111110010000000000000000000 ;"
0X
1Y
1$
#106
b11000000000100110011001100110011 '
b11000000000100110011001100110011 8
#110
0$
#115
b100100110 G
b100100110 \
b100100110 `
b100100110 d
b100100110 h
b100100110 l
b100100110 p
b100100110 t
b100100110 x
b100100110 |
b100100110 ""
b100100110 &"
b100100110 *"
b100100110010 F
b1 E
b1 9"
bx !
bx 9
b10 Q
0"
b1 D
b1 :"
1W
0Y
b11000000000100110011001100110011 T
b11000000000100110011001100110011 ;"
b111111000000000000000000000000 =
b111111000000000000000000000000 1"
b11 ?
b11 ."
b11 ?"
1$
#120
0$
#125
b110 C
b110 4"
b110 5"
bx ?
bx ."
bx ?"
0>
0_
0o
0s
0w
0{
b111111000000 H
b111111000000 2"
0!"
bx =
bx 1"
1X
0W
b10 R
1$
#130
0$
#135
b1 L"
1B"
1P
b111010011111011000100101 O"
0[
1Y
b0 =
b0 1"
b111111011010011111011000100101 B
b111111011010011111011000100101 8"
b111111011010011111011000100101 @"
1$
#140
0$
#145
b11010011111011000100101 ["
b11010011111011000100101 ^"
b1111110 Z"
b100000000000000000000000 U"
b111010011111011000100101 P"
b10 L"
b1 M"
0Z
1W
1$
#150
0$
#155
b111010011111011000100101 s"
b1111110 r"
b10111111011010011111011000100101 a"
b10 L"
b110100111110110001001010 ["
b0 ^"
b1111101 Z"
b0 U"
b0 P"
b11010011111011000100101 X"
b111111011010011111011000100101 A
b111111011010011111011000100101 E"
b1111110 W"
b10 M"
1$
#160
0$
#165
b110100111110110001001010 s"
b1111101 r"
1_"
b0 L"
b110100111110110001001010 ["
b1111101 Z"
b10111110110100111110110001001010 a"
b110100111110110001001010 X"
b111110110100111110110001001010 A
b111110110100111110110001001010 E"
b1111101 W"
1$
#170
0$
#175
b1 k"
b1 L"
0_"
b0 ["
b0 Z"
1<
b0 M"
1$
#180
0$
#185
b10000000000000000000000000000000 a"
b11010011111011000100101 ["
b11010011111011000100101 ^"
b1111110 Z"
b100000000000000000000000 U"
b111010011111011000100101 P"
b10 L"
b101100000100111011011 z"
b101100000100111011011 }"
b1111110 y"
b11010011111011000100101 t"
b100000000000000000000000 o"
b1 q"
b1 |"
b10 k"
0<
b0 X"
b0 A
b0 E"
b0 W"
b1 M"
b1 l"
1$
#190
0$
#195
b10 k"
b1011000001001110110110 z"
b0 }"
b1111101 y"
b0 t"
b0 o"
b0 q"
b0 |"
b10111111011010011111011000100101 a"
b10 L"
b110100111110110001001010 ["
b0 ^"
b1111101 Z"
b0 U"
b0 P"
b101100000100111011011 w"
b111111000101100000100111011011 @
b111111000101100000100111011011 d"
b1111110 v"
b10 l"
b11010011111011000100101 X"
b111111011010011111011000100101 A
b111111011010011111011000100101 E"
b1111110 W"
b10 M"
1$
#200
0$
#205
1_"
b0 L"
b110100111110110001001010 ["
b1111101 Z"
b10111110110100111110110001001010 a"
b10 k"
b10110000010011101101100 z"
b1111100 y"
b110100111110110001001010 X"
b111110110100111110110001001010 A
b111110110100111110110001001010 E"
b1111101 W"
b1011000001001110110110 w"
b111110101011000001001110110110 @
b111110101011000001001110110110 d"
b1111101 v"
1$
#210
0$
#215
b10 k"
b101100000100111011011000 z"
b1111011 y"
b1 L"
0_"
b0 ["
b0 Z"
b10110000010011101101100 w"
b111110010110000010011101101100 @
b111110010110000010011101101100 d"
b1111100 v"
1<
b0 M"
1$
#220
0$
#225
b10000000000000000000000000000000 a"
b11010011111011000100101 ["
b11010011111011000100101 ^"
b1111110 Z"
b100000000000000000000000 U"
b111010011111011000100101 P"
b10 L"
1~"
b0 k"
b101100000100111011011000 z"
b1111011 y"
0<
b0 X"
b0 A
b0 E"
b0 W"
b1 M"
b101100000100111011011000 w"
b111101101100000100111011011000 @
b111101101100000100111011011000 d"
b1111011 v"
1$
#230
0$
#235
b111101101100000100111011011000 !
b111101101100000100111011011000 9
0B"
0&
b0 Q
1"
0~"
b111010011111011000100101 s"
b1111110 r"
b0 z"
b0 y"
b10111111011010011111011000100101 a"
b10 L"
b110100111110110001001010 ["
b0 ^"
b1111101 Z"
b0 U"
b0 P"
1;
b0 l"
b11010011111011000100101 X"
b111111011010011111011000100101 A
b111111011010011111011000100101 E"
b1111110 W"
b10 M"
1$
#240
0$
#245
b10101100 G
b10101100 \
b10101100 `
b10101100 d
b10101100 h
b10101100 l
b10101100 p
b10101100 t
b10101100 x
b10101100 |
b10101100 ""
b10101100 &"
b10101100 *"
b110100111110110001001010 s"
b10101100001 F
b1111101 r"
b0 E
b0 9"
bx !
bx 9
1B"
1_"
b0 L"
b110100111110110001001010 ["
b1111101 Z"
b10111110110100111110110001001010 a"
b0 D
b0 :"
b1 Q
0"
b110100111110110001001010 X"
b111110110100111110110001001010 A
b111110110100111110110001001010 E"
b1111101 W"
0;
b0 w"
b0 @
b0 d"
b0 v"
b10111111101011000010100011110110 T
b10111111101011000010100011110110 ;"
b0 R
1$
b10111111101011000010100011110110 '
b10111111101011000010100011110110 8
1&
#250
0$
#255
b10 Q
b11 C
b11 4"
b11 5"
b1 k"
b1 L"
0_"
b0 ["
b0 Z"
b1 R
1!"
1{
b111111111000 H
b111111111000 2"
1w
1<
b0 M"
1$
#260
0$
#265
b10000000000000000000000000000000 a"
b101100000100111011011 z"
b101100000100111011011 }"
b1111110 y"
b11010011111011000100101 t"
b100000000000000000000000 o"
b1 q"
b1 |"
b10 k"
b11010011111011000100101 ["
b11010011111011000100101 ^"
b1111110 Z"
b100000000000000000000000 U"
b111010011111011000100101 P"
b10 L"
0<
b0 X"
b0 A
b0 E"
b0 W"
b1 M"
b1 l"
b111111010001101111011100100111 B
b111111010001101111011100100111 8"
b111111010001101111011100100111 @"
b10 R
1$
#270
0$
#275
b10 k"
b1011000001001110110110 z"
b0 }"
b1111101 y"
b0 t"
b0 o"
b0 q"
b0 |"
b10111111011010011111011000100101 a"
b10 L"
b110100111110110001001010 ["
b0 ^"
b1111101 Z"
b0 U"
b0 P"
b101100000100111011011 w"
b111111000101100000100111011011 @
b111111000101100000100111011011 d"
b1111110 v"
b10 l"
b11010011111011000100101 X"
b111111011010011111011000100101 A
b111111011010011111011000100101 E"
b1111110 W"
b10 M"
1$
#280
0$
#285
1_"
b0 L"
b110100111110110001001010 ["
b1111101 Z"
b10111110110100111110110001001010 a"
b10 k"
b10110000010011101101100 z"
b1111100 y"
b110100111110110001001010 X"
b111110110100111110110001001010 A
b111110110100111110110001001010 E"
b1111101 W"
b1011000001001110110110 w"
b111110101011000001001110110110 @
b111110101011000001001110110110 d"
b1111101 v"
1$
#290
0$
#295
b10 k"
b101100000100111011011000 z"
b1111011 y"
b1 L"
0_"
b110001101111011100100111 O"
b0 ["
b0 Z"
b10110000010011101101100 w"
b111110010110000010011101101100 @
b111110010110000010011101101100 d"
b1111100 v"
1<
b0 M"
1$
#300
0$
#305
b10000000000000000000000000000000 a"
b10001101111011100100111 ["
b10001101111011100100111 ^"
b1111110 Z"
b100000000000000000000000 U"
b110001101111011100100111 P"
b10 L"
1~"
b0 k"
b101100000100111011011000 z"
b1111011 y"
0<
b0 X"
b0 A
b0 E"
b0 W"
b1 M"
b101100000100111011011000 w"
b111101101100000100111011011000 @
b111101101100000100111011011000 d"
b1111011 v"
1$
#310
0$
#315
b111101101100000100111011011000 !
b111101101100000100111011011000 9
0B"
0&
b0 Q
1"
0~"
b110001101111011100100111 s"
b1111110 r"
b0 z"
b0 y"
b10111111010001101111011100100111 a"
b10 L"
b100011011110111001001110 ["
b0 ^"
b1111101 Z"
b0 U"
b0 P"
1;
b0 l"
b10001101111011100100111 X"
b111111010001101111011100100111 A
b111111010001101111011100100111 E"
b1111110 W"
b10 M"
1$
#320
0$
#325
bx G
bx \
bx `
bx d
bx h
bx l
bx p
bx t
bx x
bx |
bx ""
bx &"
bx *"
b100011011110111001001110 s"
bx F
b1111101 r"
bx E
bx 9"
1_"
b10111110100011011110111001001110 a"
bx D
bx :"
b100011011110111001001110 X"
b111110100011011110111001001110 A
b111110100011011110111001001110 E"
b1111101 W"
0;
b0 w"
b0 @
b0 d"
b0 v"
bx T
bx ;"
b0 R
b0 L"
b100011011110111001001110 ["
b1111101 Z"
bx !
bx 9
1B"
0"
0S
1$
#327
b1000001001011110001110111110000 '
b1000001001011110001110111110000 8
1&
#330
0$
#335
b101111000 G
b101111000 \
b101111000 `
b101111000 d
b101111000 h
b101111000 l
b101111000 p
b101111000 t
b101111000 x
b101111000 |
b101111000 ""
b101111000 &"
b101111000 *"
b101111000000 F
b11 E
b11 9"
b11 D
b11 :"
bx C
bx 4"
bx 5"
b1 k"
b1 L"
0_"
b0 ["
b0 Z"
xX
b1000001001011110001110111110000 T
b1000001001011110001110111110000 ;"
0k
0g
0c
0-"
0)"
0%"
0!"
0{
b0 H
b0 2"
0w
1<
b0 M"
b1 Q
1S
1$
#337
b1000001001010111111011100110000 '
b1000001001010111111011100110000 8
#340
0$
#345
b101011111 G
b101011111 \
b101011111 `
b101011111 d
b101011111 h
b101011111 l
b101011111 p
b101011111 t
b101011111 x
b101011111 |
b101011111 ""
b101011111 &"
b101011111 *"
b101011111000 F
xB"
b10000000000000000000000000000000 a"
b10001101111011100100111 ["
b10001101111011100100111 ^"
b1111110 Z"
b100000000000000000000000 U"
b110001101111011100100111 P"
b10 L"
b1110010000100011011001 z"
b1110010000100011011001 }"
b1111110 y"
b10001101111011100100111 t"
b100000000000000000000000 o"
b1 q"
b1 |"
b10 k"
b111 C
b111 4"
b111 5"
xP
b10 Q
0<
b0 X"
b0 A
b0 E"
b0 W"
b1 M"
b1 l"
1:
1)"
1-"
1c
1g
b111110000000 H
b111110000000 2"
1k
b1000001001010111111011100110000 T
b1000001001010111111011100110000 ;"
0X
xY
b1 R
1$
#347
b11000001001010100100100011000000 '
b11000001001010100100100011000000 8
#350
0$
#355
b101010010 G
b101010010 \
b101010010 `
b101010010 d
b101010010 h
b101010010 l
b101010010 p
b101010010 t
b101010010 x
b101010010 |
b101010010 ""
b101010010 &"
b101010010 *"
b101010010000 F
0B"
0P
b10 k"
b11100100001000110110010 z"
b0 }"
b1111101 y"
b0 t"
b0 o"
b0 q"
b0 |"
b10111111010001101111011100100111 a"
b10 L"
b100011011110111001001110 ["
b0 ^"
b1111101 Z"
b0 U"
b0 P"
b10 R
xW
1V
0Y
b11000001001010100100100011000000 T
b11000001001010100100100011000000 ;"
b111111011100001001010000000111 B
b111111011100001001010000000111 8"
b111111011100001001010000000111 @"
b1110010000100011011001 w"
b111111001110010000100011011001 @
b111111001110010000100011011001 d"
b1111110 v"
b10 l"
b10001101111011100100111 X"
b111111010001101111011100100111 A
b111111010001101111011100100111 E"
b1111110 W"
b10 M"
1$
#357
b111101111000110010010100010000 '
b111101111000110010010100010000 8
#360
0$
#365
b1110 G
b1110 \
b1110 `
b1110 d
b1110 h
b1110 l
b1110 p
b1110 t
b1110 x
b1110 |
b1110 ""
b1110 &"
b1110 *"
b1110001 F
b100 E
b100 9"
1_"
b0 L"
b100011011110111001001110 ["
b1111101 Z"
b10111110100011011110111001001110 a"
b10 k"
b111001000010001101100100 z"
b1111100 y"
b11111100 D
b11111100 :"
b100011011110111001001110 X"
b111110100011011110111001001110 A
b111110100011011110111001001110 E"
b1111101 W"
b11100100001000110110010 w"
b111110111100100001000110110010 @
b111110111100100001000110110010 d"
b1111101 v"
b111101111000110010010100010000 T
b111101111000110010010100010000 ;"
1X
1U
0W
1$
#370
0$
#375
b0 C
b0 4"
b0 5"
1~"
b0 k"
b111001000010001101100100 z"
b1111100 y"
0_"
b111100001001010000000111 O"
b0 ["
b0 Z"
1Y
0X
1%"
1!"
1{
1w
1s
1o
b111111111111 H
b111111111111 2"
1_
0:
b111001000010001101100100 w"
b111110011001000010001101100100 @
b111110011001000010001101100100 d"
b1111100 v"
1<
b0 M"
1$
#380
0$
#385
b100000000000000000000000 s"
b0 r"
b0 !
b0 9
b10000000000000000000000000000000 a"
0~"
b0 z"
b0 y"
b100010110100101111001111 O"
b0 Q
1"
0<
b0 X"
b0 A
b0 E"
b0 W"
1;
b0 l"
b111111000010110100101111001111 B
b111111000010110100101111001111 8"
b111111000010110100101111001111 @"
0V
0Y
1W
1$
#390
0$
#395
bx !
bx 9
b1 Q
0"
b0 R
0U
0W
0;
b0 w"
b0 @
b0 d"
b0 v"
1$
#400
0$
#405
b111111000010110100101111001111 !
b111111000010110100101111001111 9
1"
b1 R
1$
